2019.02.13 14:57:40 LOG5[ui]: stunnel 5.50 on x86_64-apple-darwin18.2.0 platform
2019.02.13 14:57:40 LOG5[ui]: Compiled/running with OpenSSL 1.0.2q  20 Nov 2018
2019.02.13 14:57:40 LOG5[ui]: Threading:PTHREAD Sockets:POLL,IPv6 TLS:ENGINE,FIPS,OCSP,PSK,SNI
2019.02.13 14:57:40 LOG5[ui]: Reading configuration from file /Users/sai/Documents/repos/tutorme_honours_project/tutormeweb/stunnel/dev_https.conf
2019.02.13 14:57:40 LOG5[ui]: UTF-8 byte order mark not detected
2019.02.13 14:57:40 LOG5[ui]: FIPS mode disabled
2019.02.13 14:57:40 LOG4[ui]: Insecure file permissions on stunnel/stunnel.pem
2019.02.13 14:57:40 LOG5[ui]: Configuration successful
2019.02.13 14:57:40 LOG5[ui]: Binding service [https] to 0.0.0.0:8443: Address already in use (48)
2019.02.13 14:58:01 LOG3[ui]: Received SIGINT; terminating
2019.02.13 15:19:37 LOG5[ui]: stunnel 5.50 on x86_64-apple-darwin18.2.0 platform
2019.02.13 15:19:37 LOG5[ui]: Compiled/running with OpenSSL 1.0.2q  20 Nov 2018
2019.02.13 15:19:37 LOG5[ui]: Threading:PTHREAD Sockets:POLL,IPv6 TLS:ENGINE,FIPS,OCSP,PSK,SNI
2019.02.13 15:19:37 LOG5[ui]: Reading configuration from file /Users/sai/Documents/repos/tutorme_honours_project/tutormeweb/stunnel/dev_https.conf
2019.02.13 15:19:37 LOG5[ui]: UTF-8 byte order mark not detected
2019.02.13 15:19:37 LOG5[ui]: FIPS mode disabled
2019.02.13 15:19:37 LOG4[ui]: Insecure file permissions on stunnel/stunnel.pem
2019.02.13 15:19:37 LOG5[ui]: Configuration successful
2019.02.13 15:19:37 LOG5[ui]: Binding service [https] to 0.0.0.0:8443: Address already in use (48)
2019.02.16 14:18:33 LOG5[ui]: Log file reopened
2019.02.16 14:18:33 LOG5[cron]: Cron backlog cleared (possible hibernation)
2019.02.16 15:20:37 LOG5[ui]: Log file reopened
2019.02.17 23:13:55 LOG5[ui]: Log file reopened
2019.02.20 22:56:51 LOG5[ui]: stunnel 5.50 on x86_64-apple-darwin18.2.0 platform
2019.02.20 22:56:51 LOG5[ui]: Compiled/running with OpenSSL 1.0.2q  20 Nov 2018
2019.02.20 22:56:51 LOG5[ui]: Threading:PTHREAD Sockets:POLL,IPv6 TLS:ENGINE,FIPS,OCSP,PSK,SNI
2019.02.20 22:56:51 LOG5[ui]: Reading configuration from file /Users/sai/Documents/repos/tutorme_honours_project/tutormeweb/stunnel/dev_https.conf
2019.02.20 22:56:51 LOG5[ui]: UTF-8 byte order mark not detected
2019.02.20 22:56:51 LOG5[ui]: FIPS mode disabled
2019.02.20 22:56:51 LOG4[ui]: Insecure file permissions on stunnel/stunnel.pem
2019.02.20 22:56:51 LOG5[ui]: Configuration successful
2019.02.20 22:56:51 LOG5[ui]: Binding service [https] to 0.0.0.0:8443: Address already in use (48)
2019.02.21 22:23:10 LOG5[ui]: stunnel 5.50 on x86_64-apple-darwin18.2.0 platform
2019.02.21 22:23:10 LOG5[ui]: Compiled/running with OpenSSL 1.0.2q  20 Nov 2018
2019.02.21 22:23:10 LOG5[ui]: Threading:PTHREAD Sockets:POLL,IPv6 TLS:ENGINE,FIPS,OCSP,PSK,SNI
2019.02.21 22:23:10 LOG5[ui]: Reading configuration from file /Users/sai/Documents/repos/tutorme_honours_project/tutormeweb/stunnel/dev_https.conf
2019.02.21 22:23:10 LOG5[ui]: UTF-8 byte order mark not detected
2019.02.21 22:23:10 LOG5[ui]: FIPS mode disabled
2019.02.21 22:23:10 LOG4[ui]: Insecure file permissions on stunnel/stunnel.pem
2019.02.21 22:23:10 LOG5[ui]: Configuration successful
2019.02.21 22:23:10 LOG5[ui]: Binding service [https] to 0.0.0.0:8443: Address already in use (48)
2019.02.26 16:00:35 LOG5[ui]: stunnel 5.50 on x86_64-apple-darwin18.2.0 platform
2019.02.26 16:00:35 LOG5[ui]: Compiled/running with OpenSSL 1.0.2q  20 Nov 2018
2019.02.26 16:00:35 LOG5[ui]: Threading:PTHREAD Sockets:POLL,IPv6 TLS:ENGINE,FIPS,OCSP,PSK,SNI
2019.02.26 16:00:35 LOG5[ui]: Reading configuration from file /Users/sai/Documents/repos/tutorme_honours_project/tutormeweb/stunnel/dev_https.conf
2019.02.26 16:00:35 LOG5[ui]: UTF-8 byte order mark not detected
2019.02.26 16:00:35 LOG5[ui]: FIPS mode disabled
2019.02.26 16:00:35 LOG4[ui]: Insecure file permissions on stunnel/stunnel.pem
2019.02.26 16:00:35 LOG5[ui]: Configuration successful
2019.02.26 16:00:35 LOG5[ui]: Binding service [https] to 0.0.0.0:8443: Address already in use (48)
2019.02.28 00:54:06 LOG5[ui]: stunnel 5.50 on x86_64-apple-darwin18.2.0 platform
2019.02.28 00:54:06 LOG5[ui]: Compiled/running with OpenSSL 1.0.2q  20 Nov 2018
2019.02.28 00:54:06 LOG5[ui]: Threading:PTHREAD Sockets:POLL,IPv6 TLS:ENGINE,FIPS,OCSP,PSK,SNI
2019.02.28 00:54:06 LOG5[ui]: Reading configuration from file /Users/sai/Documents/repos/tutorme_honours_project/tutormeweb/stunnel/dev_https.conf
2019.02.28 00:54:06 LOG5[ui]: UTF-8 byte order mark not detected
2019.02.28 00:54:06 LOG5[ui]: FIPS mode disabled
2019.02.28 00:54:06 LOG4[ui]: Insecure file permissions on stunnel/stunnel.pem
2019.02.28 00:54:06 LOG5[ui]: Configuration successful
2019.02.28 00:54:06 LOG5[ui]: Binding service [https] to 0.0.0.0:8443: Address already in use (48)
